{
  "$schema": "https://docs.renovatebot.com/renovate-schema.json",
  "extends": [
    ":base",
    ":dependencyDashboard",
    ":pinDependencies",
    ":npm",
    "workarounds:all",
    "replacements:all",
    "docker:pinDigests",
    ":separateMajorReleases"
  ],

  "lockFileMaintenance": { "enabled": true, "automerge": true, "automergeType": "branch" },

  "ignoreDeps": ["ghcr.io/fluxcd"],

  "packageRules": [
    {
      "groupName": "all patches",
      "groupSlug": "all-patches",
      "matchPackagePatterns": [
        "*"
      ],
      "matchUpdateTypes": [
        "patch"
      ],
      "automerge": true,
      "automergeType": "branch"
    },
    {
      "matchUpdateTypes": ["minor", "patch", "digest"],
      "matchCurrentVersion": "!/^0/",
      "automerge": true,
      "automergeType": "branch"
    },
    {
      "managers": ["npm"],
      "automergeType": "branch"
    },
    {
      "managers": ["kubernetes"],
      "automergeType": "branch",
    },
    {
      "matchDatasources": ["docker"],
      "packagePatterns": ["mariadb", "mysql", "postgres", "mongo", "redis"],
      "updateTypes": ["major"],
      "enabled": false
    },    
    {
      "managers": ["kubernetes"],
      "matchUpdateTypes": ["major"],
      "additionalBranchPrefix": "{{parentDir}}-",
      "commitMessageExtra": "in {{parentDir}} to {{#if isPinDigest}}{{{newDigestShort}}}{{else}}{{#if isMajor}}{{prettyNewMajor}}{{else}}{{#if isSingleVersion}}{{prettyNewVersion}}{{else}}{{#if newValue}}{{{newValue}}}{{else}}{{{newDigestShort}}}{{/if}}{{/if}}{{/if}}{{/if}}",
      "packagePatterns": [".*"],
      "enabled": true
    }    
  ]

}
